﻿I'm sorry, but errors were detected in your script. Please correct the
errors listed below, and try again.


File "game/script.rpy", line 130: expected ':' not found.
    else if enby:
         ^

Ren'Py Version: Ren'Py 7.4.1.1270
Sun Feb 21 12:08:49 2021
